327486 794752 509
85080 721676 509
519333 397051 470
638558 346888 509
399105 830727 509
784709 684669 504
742085 541755 509
105140 38420 351
32803 994778 525
782089 341538 509
493658 715669 509
118935 521695 470
741867 726338 424
121236 229015 386
360755 789865 509
596811 295623 470
316862 734707 509
212675 561414 470
86920 903469 525
258817 333435 407
917807 839096 476
517238 364262 470
738936 764355 424
924171 250871 525
470566 545764 470
564209 491366 470
121822 698678 509
532255 151013 470
137620 166210 383
37404 570287 470
931702 746008 525
684728 389239 509
567045 239834 470
961487 243572 525
996952 480205 525
358012 861112 525
963833 754679 525
246688 972511 525
30302 290904 443
810624 328524 509
936308 297557 525
424982 37318 449
971897 876152 507
826132 245879 509
816669 302034 509
314174 308039 384
464193 931973 525
168919 602875 470
468151 11902 449
210784 779604 509
216901 415198 449
131035 922320 525
263737 504582 449
970493 205522 525
773506 318665 509
737935 366759 509
263836 921839 525
733949 345069 509
20693 757274 509
1510 389400 443
821852 709551 468
346668 41264 443
546678 445684 470
316569 463103 449
756208 141129 509
712788 874065 525
77887 873459 525
805736 838586 525
545070 551030 452
808239 732474 468
365801 119172 443
998559 421346 525
833592 362535 509
221259 437577 449
329310 388191 441
821203 864820 525
537288 860241 525
431513 204557 449
450785 789036 509
328203 945557 525
786692 442505 509
930993 283305 525
113068 887778 525
247747 949055 525
622954 416892 470
304809 478314 449
913230 35553 525
903525 565030 525
128450 455499 449
686542 827411 504
340893 118881 443
264088 379084 441
290897 982370 525
192571 396902 443
298446 153509 443
401129 297030 441
450281 363635 449
76456 885724 525
735992 176663 509
719183 102217 509
541594 973269 525
335159 221590 443
467239 31304 449
789285 445214 509
618568 689172 509
540213 117662 470
672680 194712 509
187134 228147 386
932980 748828 525
318961 481768 449
702114 654761 442
351626 704150 509
604823 101565 470
278708 843120 525
974435 236430 525
317632 781652 509
54984 127085 354
520184 771521 509
348813 547704 470
226205 326209 443
436590 460268 400
60813 199177 383
232051 258701 381
930319 853783 476
840272 949130 507
56732 293696 443
133868 495217 449
412411 776941 509
707937 462880 509
812985 12545 509
10894 690223 509
443621 974048 525
496230 976236 525
416402 894489 525
702477 54967 509
749368 327531 509
995087 962677 458
238375 84364 443
393767 681905 509
688788 819005 504
760946 788338 468
882531 314018 525
202368 357724 443
988493 943239 458
551479 209568 470
601868 3028 470
564080 400437 470
84236 735262 509
848935 880769 432
287364 654733 509
902407 12194 525
620508 747369 509
815781 549808 509
732951 3718 509
992125 650083 525
65596 279301 443
991382 287069 525
858825 453927 525
348741 825005 509
947840 334194 525
234694 213422 443
682808 991529 525
906280 856046 445
591958 762865 509
257064 558681 470
739424 431617 509
581933 794007 509
207632 560998 470
82182 931495 525
825787 548945 509
703027 507225 509
232542 319490 407
743469 635371 504
292850 314600 384
49144 819122 509
202455 288353 443
332390 198867 443
66420 252769 443
297137 101887 443
422680 278809 449
726688 682126 504
350014 13806 443
821141 461104 509
999650 311034 525
29462 443109 449
690428 23073 509
617448 962434 525
724983 437217 509
379300 230774 441
931768 140514 525
435494 946 449
783432 732240 468
387190 957037 525
872590 434983 525
358446 680427 509
719470 902408 525
728824 170177 509
395180 672233 509
809422 942077 525
857278 1343 525
467132 338218 449
314567 965315 525
